…
maxs_long <- mins %>% pivot_longer(c("age_years", "child_TNW", 
    "child_TNS", "examiner_TNW", "freq_ttr", "r_2_i_verbs", "mor_words", 
    "num_pos_tags", "n_dos", "repetition", "retracing", "fillers", 
    "s_1g_ppl", "total_syl", "average_syl", "mlu_words", "verb_utt", 
    "dss", "ipsyn_total", "word_errors", "total_error"), names_to = "variable", 
    values_to = "max_values")

averages_long %>% full_join(sds_long, by = "variable") %>% full_join(mins_long, 
    by = "variable") %>% full_join(maxs_long, by = "variable") %>% 
    select(variable, avg_values, sd_values, min_values, max_values)

## # A tibble: 21 x 5
##    variable     avg_values sd_values min_values max_values
##    <chr>             <dbl>     <dbl>      <dbl>      <dbl>
##  1 age_years         6.06     1.41         4          4   
##  2 child_TNW       568.     227.         186        186   
##  3 child_TNS        77.3     24.5         46         46   
##  4 examiner_TNW     11.6     31.5          0          0   
##  5 freq_ttr          0.262    0.0468       0.15       0.15
##  6 r_2_i_verbs       0.482    0.499        0          0   
##  7 mor_words       505.     198.         144        144   
##  8 num_pos_tags     38.4      6.09        19         19   
##  9 n_dos             1.45     2.19         0          0   
## 10 repetition       20.5     21.2          0          0   
## # … with 11 more rows
…
